%YAML 1.1
%TAG !u! tag:unity3d.com,2011:
--- !u!1045 &1
EditorBuildSettings:
  m_ObjectHideFlags: 0
  serializedVersion: 2
  m_Scenes:
  - enabled: 1
    path: Assets/Scenes/Intro.unity
    guid: a4ad5e4f53cf5ae499db208e197bd013
  - enabled: 1
    path: Assets/Scenes/Tour.unity
    guid: d1c3109bdb54ad54c8a2b2838528e640
  - enabled: 0
    path: Assets/Scenes/Virtual Tour.unity
    guid: d2f18452addeb4045a75c18b9bbb89cf
  m_configObjects: {}
